792094 395348 509
767975 773604 393
67735 987898 525
815871 346943 509
910436 981550 507
726762 857937 525
656115 468724 509
313307 182106 443
200831 927597 525
252420 606318 470
779855 472867 509
921380 702475 525
779709 179689 509
344185 610651 470
501306 577688 470
209545 566185 470
555301 269193 470
925704 910795 445
695842 983972 525
629602 128718 509
305667 828282 509
971013 577442 525
434394 620605 470
715299 990655 525
978094 667519 525
946846 564123 525
372758 427105 449
49281 466668 449
776441 427250 509
629731 902571 525
528178 350538 470
769629 646910 504
324663 164473 443
837890 914150 476
322083 931697 525
817936 1477 509
332399 365899 441
643849 194123 509
978674 501645 525
290745 277615 389
318776 314514 353
553497 806457 509
731077 951147 525
210546 223863 386
538939 792671 509
9853 748642 509
519176 754047 509
888087 646362 525
39013 627217 509
369354 664874 509
448014 947349 525
774941 782156 437
815411 567435 509
199389 653455 509
630931 812701 504
886120 798052 525
257944 880930 525
641745 848161 525
673157 40355 509
230733 269652 407
292035 231524 407
491062 704244 509
476148 299439 449
914450 102065 525
950951 678026 525
347113 893112 525
153149 518845 470
460564 567370 470
699874 598688 509
229820 581079 470
519490 482428 470
481519 273731 449
497429 769000 509
744022 807468 468
291625 356660 441
593640 879238 525
396876 491965 449
150286 346440 443
1123 897144 525
656114 604378 509
348712 252465 441
171250 714780 509
836244 694037 504
594843 203384 470
296467 35382 443
116366 682331 509
333342 494775 449
2759 829016 509
690232 777504 504
533932 67346 470
776037 651408 504
794939 523929 509
298499 556026 470
246826 715331 509
427508 596599 470
446926 526197 470
37905 123319 354
513567 928553 525
52473 421786 449
447995 418451 418
390994 753919 509
664159 732090 504
613221 909687 525
637504 593088 509
531791 118967 470
648320 836115 504
917229 601228 525
308843 351307 441
272741 72744 443
596324 898973 525
229864 333867 443
57974 474350 449
958369 925100 507
390988 293210 441
195507 692110 509
448640 285115 449
155695 942328 525
286303 488343 449
893778 438525 525
310608 748703 509
793580 947345 525
626705 349480 509
854585 492924 525
510526 294168 449
49006 774204 509
759491 25112 509
498813 228009 449
840045 549837 525
249720 850536 525
653551 43566 509
921678 156871 525
808774 682783 504
999619 929375 507
648697 493200 509
284738 596661 470
197108 914264 525
970152 439758 525
414150 138558 449
279593 933671 525
409272 864867 525
984576 277937 525
724678 523558 509
393365 470597 449
305129 188460 443
869016 393964 525
25996 118539 354
465962 85772 449
323424 12610 443
625572 107615 470
126436 288469 443
946631 83232 525
890307 748334 525
647210 737129 504
97 756816 509
559674 895268 525
390190 12923 443
547875 735039 509
558423 536611 452
339738 595378 470
596459 425623 470
256361 385759 441
815098 399668 509
526590 448596 470
889507 838506 445
85696 868713 525
976822 212750 525
885621 909419 445
85469 106445 354
763702 450989 509
283144 728005 509
837763 984311 525
707337 920657 525
846146 971069 507
497728 66082 449
970356 226520 525
714003 300981 509
149584 25985 375
970801 179911 525
304951 553047 470
250242 626320 470
836500 507425 509
855198 597303 525
220821 704913 509
361900 261580 441
827311 508793 509
139787 706711 509
888050 673545 525
46945 509746 449
923046 33191 525
427898 850300 525
285906 259248 407
300562 143309 443
27261 966830 525
945179 72785 525
271 922672 525
369080 689437 509
417181 70802 449
49421 104435 351
951278 225908 525
13342 513869 470
809563 198637 509
316913 709538 509
193370 466808 449
931322 270747 525
263256 857380 525
426624 258860 449
180235 920621 525
853749 643461 525
791724 859408 525
204645 250816 443
106577 417794 449
266501 803952 509
762952 241542 509
620320 643038 509
787211 140738 509
925443 98788 525
412802 885661 525
337671 245347 407
397952 67396 443
640626 189100 509
546258 861525 525
416169 316499 449
191935 208195 373
907269 607795 525
791378 995904 525
501153 758656 509
918607 765771 525
126429 392967 443
892782 135423 525
219863 417619 449
304087 432412 449
498085 94781 449
767871 114416 509
9071 576679 470
581291 407242 470
400689 215301 443
441378 783829 509
844798 352114 525
83695 29881 351
494687 491673 426
392558 184143 443
512081 594744 452
953203 798240 525
786741 626882 504
715328 843974 525
9564 49773 324
168714 247325 443
760124 682753 504
72503 523113 470
15884 378691 443
