694078 725605 504
180738 326201 443
542971 124755 470
482854 508281 426
186986 661759 509
939676 986724 458
196871 119305 383
599342 280741 470
691329 456847 509
845081 643041 525
207452 761085 509
3222 619749 470
947538 31027 525
686090 776678 504
468905 277896 449
527275 219690 470
785577 112404 509
873574 313038 525
641425 314834 509
2078 566647 470
594838 62740 470
649962 886423 525
906934 563446 525
892751 722294 525
86681 745212 509
167884 484840 449
480710 310101 449
415872 11482 449
561737 434907 470
378223 245488 441
784017 300126 509
975560 891934 507
278882 528178 470
928297 501641 525
683910 338351 509
180184 823870 509
389131 462832 449
537051 362478 470
468024 491726 413
497269 198776 449
101527 776975 509
262054 842939 525
307502 710011 509
647541 275700 509
818293 484402 509
501337 532630 470
401377 150894 443
84470 703286 509
186923 575237 470
599149 812551 509
622052 687351 509
64822 41447 340
837379 916525 525
310729 244486 407
72836 936130 525
355221 800958 509
872015 162262 525
426077 29636 449
746825 670344 504
252011 260782 363
672631 865221 525
985121 871842 507
43670 481366 449
962352 868898 507
757396 253020 509
751122 298974 509
284074 134412 443
324704 456166 449
213686 602931 470
731647 495434 509
425350 621485 470
935622 753530 525
917862 694651 525
663333 78084 509
209440 319471 443
515387 503945 470
296133 935858 525
775624 88235 509
915466 451360 525
986688 918231 507
334655 924763 525
970418 56869 525
880982 533115 525
166130 850366 525
167395 852115 525
939179 346284 525
922181 524841 525
475049 621970 470
835970 255445 509
899893 295879 525
338314 969629 525
133014 209044 383
778572 658698 504
78099 340879 443
368425 452322 449
378454 321583 441
536037 847037 525
8291 766034 509
663499 192001 509
955367 25542 525
721644 135423 509
534401 806319 509
320615 359349 441
805689 672843 504
411607 763215 509
96948 204528 383
695459 984535 525
916833 80300 525
568017 5869 470
123463 894903 525
222726 459135 449
942022 874008 507
319835 601486 470
338792 611620 470
214867 91226 383
216042 1118 383
197922 91993 383
581515 717659 509
423831 352501 449
389492 979917 525
719172 204194 509
603749 413979 470
929051 38893 525
415713 724599 509
65816 260567 443
988148 186346 525
398347 583349 470
113541 385632 443
32988 122784 354
19401 103664 351
678803 256937 509
906247 27485 525
735948 235756 509
285951 698 443
793852 752257 468
565723 783427 509
57544 692511 509
223557 164328 386
532158 718195 509
385783 273201 441
66842 528712 470
504843 953862 525
930032 284235 525
655813 502081 509
843606 120720 525
677831 866083 525
574881 875916 525
409831 324893 441
416359 738610 509
873576 842307 432
436651 531499 470
630442 924558 525
379219 874906 525
64448 338875 443
75839 456945 449
240284 879533 525
305953 421176 449
462541 217109 449
85562 826349 509
642072 626540 416
512759 444886 470
113239 422409 449
688871 94836 509
363265 672829 509
765305 169685 509
315318 162408 443
143045 380599 443
480284 450639 444
198450 271114 443
29631 340111 443
226565 194557 386
140362 637807 509
333015 938431 525
844768 686024 525
978769 31590 525
457786 809311 509
631313 856385 525
384618 204571 443
879866 869171 432
568745 392452 470
493136 814703 509
984224 654081 525
537507 16083 470
379953 56844 443
140980 43328 354
752986 687744 504
711939 986552 525
380386 482674 449
322735 403286 441
316088 415275 449
622788 689279 509
710250 213616 509
744148 198654 509
544710 385037 470
325572 723483 509
984072 167879 525
902351 628193 525
919370 496747 525
388726 259918 441
617295 130328 470
442929 107360 449
745637 370728 509
638408 211499 509
868816 379949 525
941734 849755 507
969790 499557 525
72684 668638 509
497224 284395 449
609545 55349 470
135824 162005 383
97701 611871 470
799763 152586 509
633490 405061 509
24497 743008 509
522034 165594 470
237806 364321 441
181526 819554 509
255531 37493 443
853052 683638 525
120929 423406 449
733439 934142 525
29622 917020 525
669691 334072 509
561334 29778 470
519415 680616 509
570389 877740 525
770718 611822 509
274624 536950 470
373073 263557 441
622581 568987 447
367324 248032 441
459083 627880 509
938761 20269 525
446947 929436 525
311684 761503 509
809440 776458 468
657576 496782 509
74007 620423 470
232413 616213 470
383233 389687 436
563747 183034 470
513040 504219 470
451628 886686 525
332069 534986 470
364899 822394 509
957276 829215 525
111102 830635 509
343166 999821 525
377347 314306 441
884663 709730 525
863276 506260 525
