69268 905933
958612 108267
350052 519257
960782 128962
851553 57962
93825 972
37972 222681
809040 246709
754093 19786
691025 490692
923882 154387
555285 409673
892830 561838
933569 309365
508383 897359
813391 915218
229247 495033
246387 395938
486537 693880
359714 389514
650181 956183
166686 134672
955710 710135
690438 250613
402480 205172
272063 271996
884299 962431
201344 657091
562709 408502
81755 778665
69508 148545
204963 329584
216151 426650
69873 296031
887597 535894
480186 846641
367258 722180
785974 316355
66849 605567
896392 684206
792207 655793
414801 416286
401224 14575
354723 679957
153895 578074
980069 384730
342182 114640
2500 709018
9725 924473
766057 473073
854143 226018
610634 882600
653620 522643
106408 518725
574009 179080
343387 907105
801041 481628
773625 521154
970129 883385
697508 736570
4614 820231
921134 804095
234879 101689
451125 443336
721381 166837
29469 608816
746118 621549
128841 554458
950703 447660
733738 424262
710016 308331
907866 806868
919294 393449
819707 957483
963963 122683
225542 924153
264710 574704
4051 67361
576145 339235
944500 688474
473201 432377
222436 608665
500911 499854
784313 329619
170453 868680
999094 28126
910804 657390
694391 49424
153523 924315
24672 737470
294046 445619
291497 48921
29483 408446
939746 468963
206608 527381
619265 705623
196055 632885
193124 903583
610709 385204
198020 214162
637867 548210
93202 173378
614893 299979
178538 729894
696831 197805
687384 124382
45246 642216
336095 22391
123868 882606
493755 706232
174173 966109
394787 128754
659816 531596
835826 99408
192496 327872
412992 140328
196745 872180
692395 912033
952009 408697
570646 368334
585388 5898
299177 124966
480421 454376
429531 75210
676364 710499
872858 594438
518595 895315
637888 653150
172538 617366
68090 102578
794303 704278
68635 308449
779606 811245
812774 913872
428790 667184
161713 749794
570970 444498
198583 91746
676780 314307
395006 596070
864903 775814
987725 804834
796592 303057
273628 193151
352888 677156
751020 353345
971723 454174
511477 744655
68427 553211
291543 138821
908272 191378
132728 74071
350367 185001
797519 31328
302979 165981
142391 676017
667805 974643
436081 118907
458506 751885
705142 600333
504148 183460
838269 743825
398016 434609
545350 372705
949520 693960
22211 958359
954060 975531
649700 977704
27361 675473
491300 288685
908970 659807
672619 68808
352758 443360
479438 246920
477242 405261
694177 50664
768496 933885
241316 433070
580119 391788
959964 316522
90036 906478
350382 836614
699901 938039
404781 873532
241803 347768
431472 957157
669407 313084
130265 838125
98727 823675
319131 567078
356628 592176
924500 117161
427702 808043
385127 700416
943197 615592
125546 710707
751006 153577
295136 268969
602908 329693
387296 992825
604903 908805
634269 640663
809136 713064
928050 405696
667153 558170
695270 915634
