997823 997823 440
5965 461352 449
291995 274271 389
240091 903013 525
42558 235634 443
634888 981598 525
593766 704240 509
846909 608863 525
790447 921444 525
987817 693148 525
804053 2426 509
641133 956458 525
781545 518320 509
593676 339301 470
834253 174236 509
892800 485061 525
727675 220026 509
777849 922929 525
440728 591745 470
782521 96289 509
505009 746484 509
439536 689974 509
788637 720586 468
220184 895271 525
949390 489446 525
975550 780193 525
573068 41495 470
171747 724963 509
815013 996580 525
690217 976018 525
763344 173403 509
933169 302988 525
191558 732190 509
469530 110309 449
183494 740446 509
951865 282735 525
892021 450234 525
609617 898646 525
780938 820381 468
636174 523717 509
21663 727406 509
622741 671646 509
73658 522872 470
924244 940060 507
193343 412548 449
806825 957923 525
825482 139176 509
673105 827614 504
439157 686205 509
209870 699947 509
913582 405293 525
403700 725041 509
736163 983759 525
192251 93231 383
235828 981403 525
87644 474562 449
203988 348445 443
495048 850907 525
33125 323977 443
135489 502450 449
90536 115941 354
986138 859902 507
325330 26868 443
201635 42895 383
345872 672602 509
105915 458842 449
87208 279851 443
177924 926732 525
391705 473759 449
461267 310084 449
394008 961939 525
730583 939569 525
640652 851120 525
259585 795726 509
602789 388701 470
643935 540018 509
364954 346603 410
510139 233759 449
383120 475228 449
18648 114636 354
123174 739080 509
761300 48140 509
833525 894733 525
415468 645375 509
514405 902374 525
596296 834559 509
65536 176757 383
524547 781847 509
619388 774046 509
410524 896780 525
436431 887030 525
907659 654960 525
86973 223672 386
926441 240751 525
357097 106747 443
544748 948180 525
752620 673048 504
984374 465732 525
982653 685373 525
680960 443946 509
199140 129001 383
862457 43483 525
579029 780733 509
452887 466065 444
323527 106128 443
187154 385010 443
348557 71110 443
882986 907128 445
286226 858739 525
951511 143562 525
403797 375105 436
430671 508388 444
514681 966023 525
108958 940242 525
62893 803878 509
28040 129154 354
364625 215468 443
135571 934553 525
465313 29201 449
769294 533848 509
152888 240066 443
734586 216605 509
770383 887765 525
224058 782797 509
500959 749835 509
123477 747102 509
962751 937762 507
73154 267598 443
885560 209067 525
668395 315500 509
168565 232955 443
516878 76076 470
866638 397541 525
323348 914708 525
287305 555715 470
698543 272277 509
816461 739243 468
59026 821133 509
210786 78460 383
942211 48763 525
918152 328173 525
588853 193497 470
472213 29711 449
615076 398699 470
408664 248386 441
41959 219799 386
171926 825201 509
385782 631397 509
505788 650645 509
916254 906222 476
525693 901013 525
353448 885362 525
65780 941511 525
112832 25379 354
20647 263515 443
344389 462645 449
58943 83634 351
913755 890617 476
517888 418309 470
226636 421282 449
425217 858779 525
630120 873807 525
840523 847712 419
463402 492097 413
71877 969345 525
483779 631291 509
64536 223177 386
504899 837363 509
567565 969319 525
754597 665890 504
702654 349796 509
725761 431022 509
902977 80670 525
298256 641775 509
583656 536554 452
221680 298778 443
844015 979009 507
469877 205668 449
334390 275343 389
76827 109159 354
35882 241832 443
972046 924628 507
303197 105209 443
343513 180585 443
616476 811827 509
913896 301081 525
371430 765214 509
347462 974728 525
88657 66502 351
145801 907095 525
407209 225244 443
163926 238285 443
877840 986208 507
12030 607929 470
882402 781137 525
460599 293247 449
439972 726257 509
989405 589078 525
156743 631295 509
682566 529333 509
283724 179825 443
322878 3208 443
812329 381588 509
379828 404126 436
53676 175781 383
358908 673690 509
269717 550395 470
513286 68525 470
247803 239224 368
91745 972272 525
715425 323740 509
466436 302849 449
111557 179289 383
227584 38577 386
105486 231696 443
479131 224546 449
948951 321240 525
365470 176317 443
680945 931795 525
105678 909013 525
943249 568312 525
633821 209522 509
14025 297742 443
122662 497035 449
363241 660969 509
542896 299077 470
