417164 702182
168011 385994
103848 513736
492871 474559
227835 193136
424575 842117
876873 470741
728559 39746
925072 94035
506015 65980
617832 446828
848531 475597
220006 173981
718437 75532
609570 706110
374330 608950
720926 846885
453873 413921
455727 190979
979522 97344
261419 240945
822153 213648
153993 377816
874076 726825
586076 959056
694408 118875
626687 96570
806345 852659
320078 977353
297744 883908
791825 606271
232670 411000
696261 50627
233282 144325
848661 559652
909549 961183
680101 493125
652180 117259
282185 418007
115803 587182
573596 831538
851934 411537
418719 757789
220732 609142
321479 690106
595713 455905
114118 408426
413056 727031
230265 937904
16281 753431
734875 69949
341684 104719
110997 625025
993498 262510
308442 438117
27357 219319
391002 840984
72894 64564
882662 761915
988054 645616
430664 83094
494593 836797
48810 626397
457946 44287
955638 837644
809300 973164
881333 141489
330928 414368
268708 245072
25849 658935
955889 732462
844471 103830
717390 778410
113011 218369
16164 80629
804368 547885
819095 894944
612570 95433
965985 793858
765917 996187
417378 54884
450955 917430
627626 562993
460653 810464
110133 46141
41296 823647
391643 612413
655752 351450
775756 832784
533445 893348
898075 218867
181241 385184
699570 559569
518318 625123
599754 709805
208871 207076
531782 219066
709417 507034
61233 234105
226903 949658
389014 943739
191986 502280
725699 261131
737697 491995
460642 217908
263467 789993
995883 461027
335664 451894
296781 476896
810562 726395
757469 941109
644492 338391
531624 680030
326262 927332
697772 154109
989358 878624
78722 142304
755671 546311
931896 174524
6508 443946
398321 62149
586311 80785
496108 480921
963006 836116
726740 979198
351100 234701
820515 596082
558283 839271
23818 214828
289239 950551
399396 476619
115714 165096
45154 667744
709282 401486
856685 47972
168776 474415
995825 782667
777475 701528
935112 419594
479083 48886
547079 270600
738698 60769
247886 914663
172418 707516
216189 122038
979392 906426
527218 443793
895317 286607
625593 159949
371558 983709
904774 626682
34784 850901
952692 665308
790549 871252
248844 710399
856366 182617
669421 819277
123601 952153
884989 201011
767717 262848
907472 633548
168730 526499
231808 700026
711313 596272
994370 574346
369270 825004
49850 304335
65949 830979
707185 76727
918944 384007
324949 946817
398664 438946
372326 251103
54818 422766
118955 849159
663442 468754
188936 493773
639166 396019
977314 992846
394060 496442
797312 941039
838107 528626
286618 472613
494895 8128
310880 443975
618998 441688
349406 414875
768272 951577
242184 806272
218857 882619
629371 115426
105780 333323
958166 301111
229101 441273
344527 46536
756534 525242
377851 968248
301034 648710
544064 507646
540193 896729
60938 317077
334628 388085
127274 82672
828041 478426
719141 39494
764482 614382
612927 931993
748731 770818
521852 238840
51616 578545
814865 557358
279205 716662
917454 295556
946527 565786
291143 647033
706665 857674
994988 645627
732219 10920
996376 936497
94977 624410
117311 928812
442791 30933
416170 3652
6849 626354
259514 843504
607581 868375
320453 265116
774359 136432
233733 378006
123574 923525
697712 505826
418329 80886
287526 128921
298088 294340
69618 312556
872131 879442
5859 513482
192235 321939
735580 682833
108567 181617
550868 969566
890624 804006
683440 877384
890133 990414
418671 81343
903451 865567
707092 885320
159279 210333
730038 320381
200610 606278
325437 684954
283006 485640
505149 885385
456080 597747
606419 193536
522111 677243
872186 608716
784084 482223
50739 510299
185755 726459
679764 261613
455770 670342
212318 870533
798598 21415
345608 641144
797202 783204
203895 265964
263927 155195
904337 556371
133494 307141
139194 56292
667515 182975
828775 238133
901577 692927
828737 27572
974985 669037
358769 476211
917292 907692
335707 719726
616367 311468
972868 980783
841858 901538
