270099 185232
403552 660680
825331 112117
412589 506652
315667 778036
687542 791605
922526 445456
745912 746080
171373 597759
775925 833801
279375 814573
981793 85969
441210 308201
244889 918937
979978 50736
966517 29864
417400 26709
617009 731387
911880 151565
986880 879354
997724 674530
300236 666976
903918 250928
545819 255365
808558 788646
321502 949976
710778 896000
92030 516335
457227 519803
426762 93125
783804 589158
310220 774156
464339 191899
701086 196532
475462 733804
511703 128116
134028 360081
213066 641347
942838 571151
566728 885007
474692 379175
446229 739885
256529 17422
761687 859851
681687 424412
990239 796677
158952 6686
759384 945709
743339 596318
729737 118347
798457 711164
562469 468330
552970 425394
50447 696202
56741 796138
828345 375245
213997 541523
102448 980337
685004 355837
865330 4057
172019 424028
595185 87830
762067 26584
532912 891710
932913 282153
71823 280913
751341 211483
827296 674656
772175 602512
214463 215510
537312 722287
674171 131564
587224 234885
147061 605902
893008 620083
270841 468364
625397 191647
29993 707042
852284 403369
497571 906266
874161 855388
786043 668629
629208 461458
160266 648528
925939 586231
762781 839521
286037 358657
239852 497773
456966 339711
542655 27786
194550 832232
501082 474252
759367 505260
847995 881692
689755 287000
149327 969032
63905 398309
36923 493095
773392 240803
680740 466078
336974 364845
914927 536651
477832 877176
309715 544909
97843 175595
702423 944285
508363 874786
167356 849605
904284 75613
308084 611809
108776 974475
619313 820859
67188 875751
541348 618804
901156 496293
660152 514598
799190 830787
949127 471353
466697 794204
567538 516625
682120 26471
119711 552462
245813 552968
175925 453714
433418 254278
273376 822074
576075 369191
419566 97006
171987 472588
952945 982896
163998 470073
94287 482300
467302 80889
124687 568503
462126 836150
165381 488692
633951 262491
600642 755021
121264 711162
499063 263085
611970 558992
823926 318576
165439 170805
651424 104593
934345 10657
249175 151818
482354 230409
101930 43898
209317 71202
25970 335769
28322 188389
652634 276509
425326 502259
471068 760128
215038 139407
670900 570359
272914 559736
463561 66064
137747 954454
524710 667521
945871 793375
89218 627178
147402 567784
607656 527455
57430 714188
894660 313879
335695 965248
838499 792912
962296 480722
726094 14403
285612 985498
129267 292085
959490 640032
922833 108526
774047 308057
951557 295842
596745 712245
99609 155372
126797 258665
487551 464664
535345 815827
692244 473415
166588 968591
229808 867074
201310 794308
798324 165603
103966 912025
554076 229724
296549 57842
950109 480014
822596 324981
471869 312774
439525 501766
658626 251759
583094 803792
393952 768812
786350 567174
25034 835158
159084 726446
695466 286406
779759 553770
420830 855092
345613 209210
480772 955831
80409 492442
875253 537472
469982 339269
665809 481284
404513 491624
222571 752049
135816 207745
105419 16711
372151 227056
117168 338169
671880 49954
724162 279996
912850 746823
906462 82225
23673 260235
575279 890947
224590 461702
216005 356901
313866 814679
457324 409757
842578 609705
37658 873677
360865 268590
844228 309179
646948 702318
367939 331679
299570 273741
546195 804382
479958 459004
748186 980698
949343 910196
651769 248872
477212 854558
938421 528155
758286 398253
817637 338024
640414 23101
482054 684891
867124 412377
284532 327249
169249 227746
670291 359644
795038 590549
405924 322805
491774 202339
688028 57943
219408 567030
861236 97162
953453 793581
35058 686807
